{"properties": [
  {
    "name": "jwt.secret",
    "type": "java.lang.String",
    "description": "A description for 'jwt.secret'"
  },
  {
    "name": "jwt.token.prefix",
    "type": "java.lang.String",
    "description": "A description for 'jwt.token.prefix'"
  },
  {
    "name": "jwt.header",
    "type": "java.lang.String",
    "description": "A description for 'jwt.header'"
  }
]}